<<<< Displacements (X-Translation, Y-Translation, Z-Translation) >>>>>
-0.647  0.000  0.000
-0.647  0.000  0.000
0.000  0.000  0.000
0.000  0.000  0.000
-0.647  0.000  0.000
-0.647  0.000  0.000
0.000  0.000  0.000
0.000  0.000  0.000
-0.342  0.000  0.000
